…
Check the documentation with `?db_get()` for further arguments, though
defaults have been set to be useful and will not need to be changed
typically.

``` r
answers_1819 <- 
  orextdb::db_get(
    table = 'Answers',
    db = 'ORExt1819'
    )

answers_1819
#> # A tibble: 381,603 × 13
#>    answer_id task_id question_id item_score duration answer_date  answer item_id
#>        <int>   <int>       <int>      <int>    <int> <chr>        <chr>    <int>
#>  1         7       2           1          1    12138 2019-02-14 … "A"        201
#>  2         8       3           1          1     4313 2019-02-15 … "B"        101
#>  3         9       3           2          1     2192 2019-02-15 … "A"        102
#>  4        10       3           3          1     3525 2019-02-15 … "B"        103
#>  5        11       3           4          0     4697 2019-02-15 … ""         104
#>  6        12       3           5          1    28603 2019-02-15 … "ring…     105
#>  7        13       3           6          0     4723 2019-02-15 … "B"        106
#>  8        14       3           7          1    36421 2019-02-15 … "Movi…     107
#>  9        15       3           8          1    35737 2019-02-15 … "The …     108
#> 10        16       3           9          0     4247 2019-02-15 … "B"        109
#> # … with 381,593 more rows, and 5 more variables: positions <chr>,
#> #   is_practice <int>, is_correct <int>, is_final <int>, image_name <chr>
```
…
